{
    "name": "root", 
    "children": [
        {
            "name": "Entertainment", 
            "children": [
                {
                    "name": "ivoox.com", 
                    "size": 1.7490953266212945
                }, 
                {
                    "name": "euroresidentes.es", 
                    "size": 1.6206565966927624
                }, 
                {
                    "name": "youtube.com", 
                    "size": 2.785360736791096
                }, 
                {
                    "name": "musica.com", 
                    "size": 1.7028460493442568
                }, 
                {
                    "name": "top100.cn", 
                    "size": 1.6343832050774201
                }, 
                {
                    "name": "filmaffinity.com", 
                    "size": 1.7299004998778658
                }, 
                {
                    "name": "kewego.com", 
                    "size": 1.6899558548715783
                }, 
                {
                    "name": "hola.com", 
                    "size": 1.8303377842975417
                }, 
                {
                    "name": "324.cat", 
                    "size": 1.7172379845024439
                }, 
                {
                    "name": "eitb.com", 
                    "size": 1.6193553801377651
                }, 
                {
                    "name": "cuatro.com", 
                    "size": 1.5911214624647507
                }, 
                {
                    "name": "lasexta.com", 
                    "size": 1.6558964299258778
                }, 
                {
                    "name": "dailymotion.com", 
                    "size": 1.7917418508465093
                }, 
                {
                    "name": "midomi.com", 
                    "size": 1.6448897722838876
                }, 
                {
                    "name": "rtve.es", 
                    "size": 2.0119767343214687
                }, 
                {
                    "name": "tf1.fr", 
                    "size": 2.0601241539081929
                }, 
                {
                    "name": "liverail.com", 
                    "size": 1.8556007362580844
                }, 
                {
                    "name": "grooveshark.com", 
                    "size": 1.6854550429476987
                }, 
                {
                    "name": "fcb-fm.com", 
                    "size": 1.6140542384620635
                }, 
                {
                    "name": "vimeo.com", 
                    "size": 1.9842167599564184
                }, 
                {
                    "name": "antena3.com", 
                    "size": 1.8794737695061845
                }, 
                {
                    "name": "telecinco.es", 
                    "size": 2.0586231461270059
                }, 
                {
                    "name": "mis-recetas.org", 
                    "size": 1.5971377527475774
                }, 
                {
                    "name": "cuantocabron.com", 
                    "size": 1.6590738140266499
                }, 
                {
                    "name": "tv3.cat", 
                    "size": 1.6015197467194875
                }, 
                {
                    "name": "bsmwap.com", 
                    "size": 1.6270254087460871
                }, 
                {
                    "name": "euroresidentes.com", 
                    "size": 1.6580207646264504
                }, 
                {
                    "name": "plus.es", 
                    "size": 1.6558964299258778
                }, 
                {
                    "name": "goear.com", 
                    "size": 1.779273505970737
                }, 
                {
                    "name": "oryte.com", 
                    "size": 1.7320508075688774
                }, 
                {
                    "name": "cinesa.es", 
                    "size": 1.592644807116683
                }, 
                {
                    "name": "kugou.com", 
                    "size": 1.6761149697203512
                }, 
                {
                    "name": "formulatv.com", 
                    "size": 1.6732192203184812
                }, 
                {
                    "name": "mitele.es", 
                    "size": 1.668290386219033
                }
            ]
        }, 
        {
            "name": "Travel", 
            "children": [
                {
                    "name": "ryanair.com", 
                    "size": 1.6043822345089294
                }, 
                {
                    "name": "aena-aeropuertos.es", 
                    "size": 1.6601208820380602
                }, 
                {
                    "name": "tmb.cat", 
                    "size": 1.668290386219033
                }, 
                {
                    "name": "booking.com", 
                    "size": 1.8425430944949364
                }, 
                {
                    "name": "rumbo.es", 
                    "size": 1.7117698594097051
                }, 
                {
                    "name": "edreams.es", 
                    "size": 1.6632269040768861
                }, 
                {
                    "name": "renfe.com", 
                    "size": 1.8700368684232338
                }, 
                {
                    "name": "tuzsa.es", 
                    "size": 1.783699785161464
                }, 
                {
                    "name": "atrapalo.com", 
                    "size": 1.6899558548715783
                }, 
                {
                    "name": "iberia.mobi", 
                    "size": 1.5816945113203256
                }, 
                {
                    "name": "tripadvisor.es", 
                    "size": 1.808369444271545
                }, 
                {
                    "name": "iberia.com", 
                    "size": 1.6331774577175011
                }
            ]
        }, 
        {
            "name": "Sports", 
            "children": [
                {
                    "name": "marca.com", 
                    "size": 2.3075680796835636
                }, 
                {
                    "name": "acb.com", 
                    "size": 1.727725863715585
                }, 
                {
                    "name": "nba.com", 
                    "size": 1.5895848775196213
                }, 
                {
                    "name": "sportyou.es", 
                    "size": 1.8781023853194856
                }, 
                {
                    "name": "as.com", 
                    "size": 2.2885512552112415
                }, 
                {
                    "name": "goal.com", 
                    "size": 1.678966381608431
                }, 
                {
                    "name": "windguru.cz", 
                    "size": 1.7077655384059871
                }, 
                {
                    "name": "mundodeportivo.com", 
                    "size": 1.9712575612670404
                }, 
                {
                    "name": "calculapuntoscomunio.com", 
                    "size": 1.6558964299258778
                }, 
                {
                    "name": "fcf.cat", 
                    "size": 1.7149136931114837
                }, 
                {
                    "name": "puntoscomunio.com", 
                    "size": 1.6367709508232298
                }, 
                {
                    "name": "superdeporte.es", 
                    "size": 1.6282726554257878
                }, 
                {
                    "name": "sport.es", 
                    "size": 2.0674851426509906
                }, 
                {
                    "name": "mismarcadores.com", 
                    "size": 1.7141325878375449
                }, 
                {
                    "name": "futbolme.com", 
                    "size": 1.7775877772276876
                }, 
                {
                    "name": "ligabbva.com", 
                    "size": 1.7451394218588612
                }, 
                {
                    "name": "rojadirecta.me", 
                    "size": 1.5864709984787195
                }, 
                {
                    "name": "livescore.com", 
                    "size": 1.7451394218588612
                }, 
                {
                    "name": "resultados-futbol.com", 
                    "size": 1.6960811309553872
                }, 
                {
                    "name": "strikermanager.com", 
                    "size": 1.6367709508232298
                }, 
                {
                    "name": "runtastic.com", 
                    "size": 1.7362806877260895
                }
            ]
        }, 
        {
            "name": "Community", 
            "children": [
                {
                    "name": "madrid.org", 
                    "size": 1.5784365299976539
                }, 
                {
                    "name": "vidayestilo.es", 
                    "size": 1.9769672904476643
                }, 
                {
                    "name": "meetic.es", 
                    "size": 1.6702776523348104
                }, 
                {
                    "name": "muchosplanes.com", 
                    "size": 1.6180446847627483
                }, 
                {
                    "name": "ascodevida.com", 
                    "size": 1.745804364328543
                }, 
                {
                    "name": "twoo.com", 
                    "size": 1.6282726554257878
                }, 
                {
                    "name": "elle.es", 
                    "size": 1.7747458503031446
                }, 
                {
                    "name": "nuevoloquo.com", 
                    "size": 1.6355809994669548
                }, 
                {
                    "name": "cuantarazon.com", 
                    "size": 1.683624003879018
                }, 
                {
                    "name": "icon.cat", 
                    "size": 1.6085916089575294
                }, 
                {
                    "name": "wikia.com", 
                    "size": 1.5751168787068055
                }, 
                {
                    "name": "tapulous.com", 
                    "size": 1.8493733085983275
                }, 
                {
                    "name": "hoymujer.com", 
                    "size": 1.8517307312679603
                }, 
                {
                    "name": "enfemenino.com", 
                    "size": 1.8210188328524082
                }, 
                {
                    "name": "mis-recetas.org", 
                    "size": 1.5971377527475774
                }, 
                {
                    "name": "vogue.es", 
                    "size": 1.6402948119058178
                }, 
                {
                    "name": "ask.fm", 
                    "size": 1.8828633531965318
                }, 
                {
                    "name": "hackerwatch.org", 
                    "size": 1.7933119573430154
                }, 
                {
                    "name": "mequedouno.com", 
                    "size": 1.5833011217497763
                }, 
                {
                    "name": "pof.com", 
                    "size": 1.7706970463348062
                }
            ]
        }, 
        {
            "name": "Gambling", 
            "children": [
                {
                    "name": "pokerist.com", 
                    "size": 1.942776658339713
                }, 
                {
                    "name": "euromillones.com.es", 
                    "size": 1.6295113624830808
                }, 
                {
                    "name": "williamhill.com", 
                    "size": 2.0019445946435308
                }, 
                {
                    "name": "bwin.es", 
                    "size": 1.5751168787068055
                }, 
                {
                    "name": "boyaa.com", 
                    "size": 1.6379531667805634
                }, 
                {
                    "name": "loteriasyapuestas.es", 
                    "size": 1.9626352069829465
                }, 
                {
                    "name": "lotopia.com", 
                    "size": 1.8285954221134688
                }
            ]
        }, 
        {
            "name": "Regional/Local", 
            "children": [
                {
                    "name": "diariodesevilla.es", 
                    "size": 1.6515726970508162
                }, 
                {
                    "name": "xunta.es", 
                    "size": 1.6127041225612779
                }, 
                {
                    "name": "grupojoly.com", 
                    "size": 1.6379531667805634
                }, 
                {
                    "name": "buscorestaurantes.com", 
                    "size": 1.5848931924611136
                }
            ]
        }, 
        {
            "name": "Social Media", 
            "children": [
                {
                    "name": "change.org", 
                    "size": 1.6319636450805155
                }, 
                {
                    "name": "sharethis.com", 
                    "size": 2.1104651817894395
                }, 
                {
                    "name": "odnoklassniki.ru", 
                    "size": 1.6085916089575294
                }, 
                {
                    "name": "unrulymedia.com", 
                    "size": 1.5767845668359715
                }, 
                {
                    "name": "ebuzzing.com", 
                    "size": 1.6232311643048889
                }, 
                {
                    "name": "linkedin.com", 
                    "size": 1.8590226960467084
                }, 
                {
                    "name": "lijit.com", 
                    "size": 1.6817748651989708
                }, 
                {
                    "name": "twitter.com", 
                    "size": 2.7270936306496476
                }, 
                {
                    "name": "addthis.com", 
                    "size": 2.2457515462716153
                }, 
                {
                    "name": "scribd.com", 
                    "size": 1.6590738140266499
                }, 
                {
                    "name": "facebook.com", 
                    "size": 2.9306079224488837
                }, 
                {
                    "name": "badoo.com", 
                    "size": 1.9286259206489289
                }, 
                {
                    "name": "blogger.com", 
                    "size": 2.2934969290744891
                }, 
                {
                    "name": "slideshare.net", 
                    "size": 1.6854550429476987
                }, 
                {
                    "name": "anybodyoutthere.com", 
                    "size": 1.6493720349527217
                }, 
                {
                    "name": "wordpress.com", 
                    "size": 1.9893991268385183
                }, 
                {
                    "name": "typepad.com", 
                    "size": 1.6319636450805155
                }, 
                {
                    "name": "pinterest.com", 
                    "size": 1.7061398570050408
                }, 
                {
                    "name": "tumblr.com", 
                    "size": 1.838416287252544
                }, 
                {
                    "name": "tuguu.com", 
                    "size": 1.6127041225612779
                }, 
                {
                    "name": "codigobarras.net", 
                    "size": 2.1379339802839015
                }, 
                {
                    "name": "vk.com", 
                    "size": 1.8392483394785382
                }, 
                {
                    "name": "outbrain.com", 
                    "size": 1.747785627317439
                }, 
                {
                    "name": "tuenti.com", 
                    "size": 3.0191431330118705
                }
            ]
        }, 
        {
            "name": "Government", 
            "children": [
                {
                    "name": "juntadeandalucia.es", 
                    "size": 1.7383613363123431
                }, 
                {
                    "name": "nih.gov", 
                    "size": 1.6379531667805634
                }, 
                {
                    "name": "boe.es", 
                    "size": 1.5941551500450146
                }, 
                {
                    "name": "gencat.cat", 
                    "size": 1.829903591761866
                }, 
                {
                    "name": "dgt.es", 
                    "size": 1.592644807116683
                }
            ]
        }, 
        {
            "name": "Automotive", 
            "children": [
                {
                    "name": "forocoches.com", 
                    "size": 1.7787131926462514
                }, 
                {
                    "name": "caranddriverthef1.com", 
                    "size": 1.6817748651989708
                }, 
                {
                    "name": "autoscout24.es", 
                    "size": 1.5751168787068055
                }, 
                {
                    "name": "coches.net", 
                    "size": 1.8746339545189534
                }
            ]
        }, 
        {
            "name": "News/Information", 
            "children": [
                {
                    "name": "laverdad.es", 
                    "size": 1.7503962587941067
                }, 
                {
                    "name": "meteo.cat", 
                    "size": 1.6099729755450909
                }, 
                {
                    "name": "elmundo.es", 
                    "size": 2.437280769577455
                }, 
                {
                    "name": "heraldo.es", 
                    "size": 1.6482617164044835
                }, 
                {
                    "name": "cope.es", 
                    "size": 1.7611169203022408
                }, 
                {
                    "name": "elperiodicodearagon.com", 
                    "size": 1.5833011217497763
                }, 
                {
                    "name": "infobae.com", 
                    "size": 1.580073077972056
                }, 
                {
                    "name": "nytimes.com", 
                    "size": 1.5767845668359715
                }, 
                {
                    "name": "cadenaser.com", 
                    "size": 1.7497468808506129
                }, 
                {
                    "name": "eldiariomontanes.es", 
                    "size": 1.7077655384059871
                }, 
                {
                    "name": "lavanguardia.mobi", 
                    "size": 2.0583217591845893
                }, 
                {
                    "name": "larioja.com", 
                    "size": 1.6127041225612779
                }, 
                {
                    "name": "publico.es", 
                    "size": 1.8191941495615076
                }, 
                {
                    "name": "ara.cat", 
                    "size": 1.8936751029569991
                }, 
                {
                    "name": "accuweather.com", 
                    "size": 1.727725863715585
                }, 
                {
                    "name": "abc.es", 
                    "size": 2.1152321019683114
                }, 
                {
                    "name": "prensa-latina.cu", 
                    "size": 1.6761149697203512
                }, 
                {
                    "name": "lavanguardia.com", 
                    "size": 2.1173460596281748
                }, 
                {
                    "name": "20minutos.tv", 
                    "size": 1.5864709984787195
                }, 
                {
                    "name": "lavozdegalicia.es", 
                    "size": 1.9105460086999304
                }, 
                {
                    "name": "canarias7.es", 
                    "size": 1.6402948119058178
                }, 
                {
                    "name": "diariodenavarra.es", 
                    "size": 1.7149136931114837
                }, 
                {
                    "name": "diarioinformacion.com", 
                    "size": 1.666281583866928
                }, 
                {
                    "name": "meneame.net", 
                    "size": 1.7611169203022408
                }, 
                {
                    "name": "elpais.com", 
                    "size": 2.2666700313670169
                }, 
                {
                    "name": "epi.es", 
                    "size": 1.9896039134256553
                }, 
                {
                    "name": "elcomercio.es", 
                    "size": 1.6558964299258778
                }, 
                {
                    "name": "larazon.es", 
                    "size": 1.7764559123916857
                }, 
                {
                    "name": "elnortedecastilla.es", 
                    "size": 1.6343832050774201
                }, 
                {
                    "name": "hoy.es", 
                    "size": 1.6515726970508162
                }, 
                {
                    "name": "elperiodico.cat", 
                    "size": 1.6113437568139082
                }, 
                {
                    "name": "20minutos.es", 
                    "size": 2.0027176964227271
                }, 
                {
                    "name": "diariodeleon.es", 
                    "size": 1.6471446252729616
                }, 
                {
                    "name": "vanitatis.com", 
                    "size": 1.7109757174938469
                }, 
                {
                    "name": "lne.es", 
                    "size": 1.8150273454416026
                }, 
                {
                    "name": "orbyt.es", 
                    "size": 1.7484415806512519
                }, 
                {
                    "name": "lainformacion.com", 
                    "size": 1.8739332869370215
                }, 
                {
                    "name": "vertele.com", 
                    "size": 1.7390499334944332
                }, 
                {
                    "name": "lasprovincias.es", 
                    "size": 1.7706970463348062
                }, 
                {
                    "name": "tiempo.com", 
                    "size": 1.7890971658579482
                }, 
                {
                    "name": "juridicas.com", 
                    "size": 1.5941551500450146
                }, 
                {
                    "name": "elperiodico.com", 
                    "size": 1.9152117959945791
                }, 
                {
                    "name": "ideal.es", 
                    "size": 1.7629492067312371
                }, 
                {
                    "name": "vozpopuli.com", 
                    "size": 1.580073077972056
                }, 
                {
                    "name": "laprovincia.es", 
                    "size": 1.6367709508232298
                }, 
                {
                    "name": "libertaddigital.com", 
                    "size": 1.829903591761866
                }, 
                {
                    "name": "europapress.es", 
                    "size": 1.9435361992692797
                }, 
                {
                    "name": "cotizalia.com", 
                    "size": 1.6000710533112421
                }, 
                {
                    "name": "farodevigo.es", 
                    "size": 1.7376702754484137
                }, 
                {
                    "name": "abcdesevilla.es", 
                    "size": 1.6548249953408281
                }, 
                {
                    "name": "que.es", 
                    "size": 1.7444721912999277
                }, 
                {
                    "name": "meteogroup.de", 
                    "size": 1.6899558548715783
                }, 
                {
                    "name": "eltiempo.es", 
                    "size": 2.5648238620433901
                }, 
                {
                    "name": "deia.com", 
                    "size": 1.6569616612423721
                }, 
                {
                    "name": "elplural.com", 
                    "size": 1.5941551500450146
                }, 
                {
                    "name": "snow-forecast.com", 
                    "size": 1.5816945113203256
                }, 
                {
                    "name": "levante-emv.com", 
                    "size": 1.7516885468169912
                }, 
                {
                    "name": "foreca.com", 
                    "size": 1.796415544706095
                }, 
                {
                    "name": "tutiempo.net", 
                    "size": 1.8597754902197974
                }, 
                {
                    "name": "periodistadigital.com", 
                    "size": 1.666281583866928
                }, 
                {
                    "name": "meteogalicia.es", 
                    "size": 1.6270254087460871
                }, 
                {
                    "name": "diariosur.es", 
                    "size": 1.6854550429476987
                }, 
                {
                    "name": "elcorreo.com", 
                    "size": 1.9152117959945791
                }, 
                {
                    "name": "yr.no", 
                    "size": 1.8433585607800931
                }, 
                {
                    "name": "aemet.es", 
                    "size": 2.1115462112274122
                }, 
                {
                    "name": "diariovasco.com", 
                    "size": 1.7979494223311216
                }, 
                {
                    "name": "elconfidencial.com", 
                    "size": 1.9600743516709946
                }
            ]
        }, 
        {
            "name": "Corporate Presence", 
            "children": [
                {
                    "name": "mythings.com", 
                    "size": 1.8445757051768006
                }, 
                {
                    "name": "paran.com", 
                    "size": 1.7490953266212945
                }, 
                {
                    "name": "youmi.net", 
                    "size": 1.6307416524210256
                }, 
                {
                    "name": "trrsf.com.br", 
                    "size": 1.6099729755450909
                }, 
                {
                    "name": "adstargeting.com", 
                    "size": 1.5956527233198223
                }, 
                {
                    "name": "dylvian.com", 
                    "size": 1.9197774729488484
                }, 
                {
                    "name": "cxense.com", 
                    "size": 2.5104762177104036
                }, 
                {
                    "name": "trrsf.com", 
                    "size": 1.8469885262704462
                }, 
                {
                    "name": "userreport.com", 
                    "size": 1.5880348069649881
                }, 
                {
                    "name": "lidl.es", 
                    "size": 1.5848931924611136
                }, 
                {
                    "name": "avazudsp.net", 
                    "size": 1.6515726970508162
                }, 
                {
                    "name": "conviva.com", 
                    "size": 1.6515726970508162
                }, 
                {
                    "name": "weblogssl.com", 
                    "size": 1.6057964191840091
                }, 
                {
                    "name": "mediamarkt.es", 
                    "size": 1.6099729755450909
                }, 
                {
                    "name": "histats.com", 
                    "size": 2.0240469437463164
                }, 
                {
                    "name": "antevenio.com", 
                    "size": 1.7011773971679882
                }, 
                {
                    "name": "montiera.com", 
                    "size": 1.6180446847627483
                }, 
                {
                    "name": "prisacom.com", 
                    "size": 2.3104091226168393
                }, 
                {
                    "name": "ads.cc", 
                    "size": 1.8246195792947333
                }, 
                {
                    "name": "adnetwork.net", 
                    "size": 1.6193553801377651
                }, 
                {
                    "name": "thetrafficstat.net", 
                    "size": 1.7172379845024439
                }, 
                {
                    "name": "yoc.com", 
                    "size": 1.7327622691495173
                }, 
                {
                    "name": "babylon.com", 
                    "size": 2.0584725022986001
                }, 
                {
                    "name": "autobar.es", 
                    "size": 1.7195343027113503
                }, 
                {
                    "name": "yoc.mobi", 
                    "size": 1.6000710533112421
                }, 
                {
                    "name": "grupozeta.es", 
                    "size": 1.8131474454755332
                }, 
                {
                    "name": "zeusclicks.com", 
                    "size": 1.6504756670204688
                }, 
                {
                    "name": "bbc.co.uk", 
                    "size": 1.7741725188934949
                }, 
                {
                    "name": "naturalmotion.com", 
                    "size": 1.8493733085983275
                }, 
                {
                    "name": "a4.tl", 
                    "size": 1.7187719275874789
                }, 
                {
                    "name": "pinchmedia.com", 
                    "size": 1.6331774577175011
                }, 
                {
                    "name": "facilisimo.com", 
                    "size": 1.7536110336773154
                }, 
                {
                    "name": "trovit.es", 
                    "size": 1.6899558548715783
                }
            ]
        }, 
        {
            "name": "Services", 
            "children": [
                {
                    "name": "4shared.com", 
                    "size": 1.6493720349527217
                }, 
                {
                    "name": "chofert.com", 
                    "size": 1.6872683523924334
                }, 
                {
                    "name": "ifwcash.com", 
                    "size": 1.6471446252729616
                }, 
                {
                    "name": "softonicads.com", 
                    "size": 1.6057964191840091
                }, 
                {
                    "name": "iminent.com", 
                    "size": 1.72626230073693
                }, 
                {
                    "name": "yfrog.com", 
                    "size": 1.5986104580964025
                }, 
                {
                    "name": "taringa.net", 
                    "size": 1.7953863723139829
                }, 
                {
                    "name": "buongiorno.com", 
                    "size": 1.7348810182379126
                }, 
                {
                    "name": "dyndns.org", 
                    "size": 1.7695247832092833
                }, 
                {
                    "name": "foroactivo.com", 
                    "size": 1.6193553801377651
                }, 
                {
                    "name": "dindo.es", 
                    "size": 1.7093774101225592
                }, 
                {
                    "name": "mydas.mobi", 
                    "size": 2.3652123066153581
                }, 
                {
                    "name": "offerbox.com", 
                    "size": 1.7885639819875963
                }, 
                {
                    "name": "mp3skull.com", 
                    "size": 1.7438026559663213
                }, 
                {
                    "name": "shazam.com", 
                    "size": 1.982743611469904
                }, 
                {
                    "name": "crossrider.com", 
                    "size": 1.6960811309553872
                }, 
                {
                    "name": "fbshare.me", 
                    "size": 1.5767845668359715
                }, 
                {
                    "name": "facemoods.com", 
                    "size": 1.6952182030724354
                }, 
                {
                    "name": "cachefly.net", 
                    "size": 1.7536110336773154
                }, 
                {
                    "name": "buildmypinnedsite.com", 
                    "size": 1.692605434332267
                }, 
                {
                    "name": "pho.to", 
                    "size": 1.6569616612423721
                }, 
                {
                    "name": "vserv.mobi", 
                    "size": 1.752972311057269
                }, 
                {
                    "name": "simply.com", 
                    "size": 1.7210499883172263
                }, 
                {
                    "name": "groupalia.com", 
                    "size": 1.6917263851493571
                }, 
                {
                    "name": "is.gd", 
                    "size": 1.6167243636066806
                }, 
                {
                    "name": "vmn.net", 
                    "size": 1.6621973577052471
                }, 
                {
                    "name": "sygic.com", 
                    "size": 1.7028460493442568
                }, 
                {
                    "name": "incredibar.com", 
                    "size": 1.6569616612423721
                }, 
                {
                    "name": "amazonaws.com", 
                    "size": 2.3504738120107129
                }, 
                {
                    "name": "lockerz.com", 
                    "size": 1.7933119573430154
                }, 
                {
                    "name": "tt1.nl", 
                    "size": 1.7225537548732519
                }, 
                {
                    "name": "mobpartner.mobi", 
                    "size": 1.7125606992678741
                }, 
                {
                    "name": "mojiva.com", 
                    "size": 1.936862904082757
                }, 
                {
                    "name": "htctouch.com", 
                    "size": 1.6448897722838876
                }, 
                {
                    "name": "appspot.com", 
                    "size": 2.1731429820011994
                }, 
                {
                    "name": "utorrent.com", 
                    "size": 1.7901592628398706
                }, 
                {
                    "name": "frenys.com", 
                    "size": 1.5833011217497763
                }, 
                {
                    "name": "sweetim.com", 
                    "size": 1.829903591761866
                }, 
                {
                    "name": "offerum.com", 
                    "size": 1.6219484779914277
                }, 
                {
                    "name": "wattpad.com", 
                    "size": 1.5833011217497763
                }, 
                {
                    "name": "scanlife.com", 
                    "size": 1.6960811309553872
                }, 
                {
                    "name": "letsbonus.com", 
                    "size": 1.7917418508465093
                }, 
                {
                    "name": "leadbolt.net", 
                    "size": 1.6343832050774201
                }, 
                {
                    "name": "whatismyip.org", 
                    "size": 1.8044635282466326
                }, 
                {
                    "name": "mediagra.com", 
                    "size": 1.6180446847627483
                }, 
                {
                    "name": "iadvize.com", 
                    "size": 1.7341773543266157
                }, 
                {
                    "name": "soundcloud.com", 
                    "size": 1.6307416524210256
                }, 
                {
                    "name": "shareaholic.com", 
                    "size": 1.6702776523348104
                }, 
                {
                    "name": "bittorrent.com", 
                    "size": 1.683624003879018
                }, 
                {
                    "name": "google.de", 
                    "size": 1.6099729755450909
                }, 
                {
                    "name": "conduit.com", 
                    "size": 1.8392483394785382
                }, 
                {
                    "name": "pubmatic.com", 
                    "size": 1.99042116817298
                }, 
                {
                    "name": "stumbleupon.com", 
                    "size": 1.8187353940189284
                }, 
                {
                    "name": "shazamid.com", 
                    "size": 1.666281583866928
                }, 
                {
                    "name": "flickr.com", 
                    "size": 1.7133482659207111
                }, 
                {
                    "name": "337.com", 
                    "size": 1.7718623660921469
                }, 
                {
                    "name": "ginyas.com", 
                    "size": 1.6460206737514929
                }, 
                {
                    "name": "hofmann.es", 
                    "size": 1.6537472807282365
                }, 
                {
                    "name": "groupon.es", 
                    "size": 1.8425430944949364
                }, 
                {
                    "name": "instagram.com", 
                    "size": 2.6130239486040039
                }, 
                {
                    "name": "smsarena.com", 
                    "size": 1.7464670352107243
                }, 
                {
                    "name": "skype.com", 
                    "size": 2.1262934227681267
                }, 
                {
                    "name": "twimg.com", 
                    "size": 1.8281574874260076
                }, 
                {
                    "name": "explabs.net", 
                    "size": 1.9054735993324177
                }, 
                {
                    "name": "fluentmobile.com", 
                    "size": 2.0972151343043346
                }, 
                {
                    "name": "softick.com", 
                    "size": 1.6270254087460871
                }, 
                {
                    "name": "socialgrowthtechnologies.com", 
                    "size": 1.8774132991072143
                }, 
                {
                    "name": "appff.com", 
                    "size": 1.7133482659207111
                }, 
                {
                    "name": "flipboard.com", 
                    "size": 1.7077655384059871
                }
            ]
        }, 
        {
            "name": "Business/Finance", 
            "children": [
                {
                    "name": "forexpros.es", 
                    "size": 1.5864709984787195
                }, 
                {
                    "name": "finanzas.com", 
                    "size": 1.6307416524210256
                }, 
                {
                    "name": "bankia.es", 
                    "size": 1.854832529526323
                }, 
                {
                    "name": "bancopopular.es", 
                    "size": 1.6504756670204688
                }, 
                {
                    "name": "helpmycash.com", 
                    "size": 1.7814990174864302
                }, 
                {
                    "name": "expansion.com", 
                    "size": 1.8756805566072197
                }, 
                {
                    "name": "bolsamadrid.es", 
                    "size": 1.5971377527475774
                }, 
                {
                    "name": "lacaixa.es", 
                    "size": 1.9315850247469175
                }, 
                {
                    "name": "eleconomista.es", 
                    "size": 1.9791243954094631
                }, 
                {
                    "name": "infobolsanet.com", 
                    "size": 1.7011773971679882
                }, 
                {
                    "name": "caixabank.com", 
                    "size": 2.1151141006765046
                }, 
                {
                    "name": "ingdirect.es", 
                    "size": 1.6448897722838876
                }, 
                {
                    "name": "ruralvia.com", 
                    "size": 1.6232311643048889
                }, 
                {
                    "name": "intereconomia.com", 
                    "size": 1.7362806877260895
                }, 
                {
                    "name": "bolsamania.com", 
                    "size": 1.6460206737514929
                }, 
                {
                    "name": "infobolsa.es", 
                    "size": 1.8034750494754899
                }, 
                {
                    "name": "cincodias.com", 
                    "size": 1.7787131926462514
                }, 
                {
                    "name": "invertia.com", 
                    "size": 1.762340347832317
                }
            ]
        }, 
        {
            "name": "Search/Navigation", 
            "children": [
                {
                    "name": "bing.com", 
                    "size": 2.0787933805095262
                }, 
                {
                    "name": "superfish.com", 
                    "size": 1.7820515063779889
                }, 
                {
                    "name": "google.es", 
                    "size": 2.8974065622332019
                }, 
                {
                    "name": "baidu.com", 
                    "size": 1.6722438639137731
                }, 
                {
                    "name": "google.com", 
                    "size": 2.4857808487463933
                }, 
                {
                    "name": "mybrowserbar.com", 
                    "size": 1.5784365299976539
                }, 
                {
                    "name": "search-results.com", 
                    "size": 1.6621973577052471
                }, 
                {
                    "name": "google.co.uk", 
                    "size": 1.7718623660921469
                }, 
                {
                    "name": "wajam.com", 
                    "size": 1.8268379887993149
                }, 
                {
                    "name": "ask.com", 
                    "size": 1.9342401657974901
                }, 
                {
                    "name": "naver.jp", 
                    "size": 2.109741717048025
                }
            ]
        }, 
        {
            "name": "Games", 
            "children": [
                {
                    "name": "meristation.com", 
                    "size": 1.5864709984787195
                }, 
                {
                    "name": "topeleven.com", 
                    "size": 1.7536110336773154
                }, 
                {
                    "name": "xbox.com", 
                    "size": 1.9672156580815792
                }, 
                {
                    "name": "gamevil.com", 
                    "size": 1.7516885468169912
                }, 
                {
                    "name": "gfsrv.net", 
                    "size": 1.7885639819875963
                }, 
                {
                    "name": "igg.com", 
                    "size": 1.5956527233198223
                }, 
                {
                    "name": "dragonplay.net", 
                    "size": 1.8980990381705996
                }, 
                {
                    "name": "miniclippt.com", 
                    "size": 1.6391277527348698
                }, 
                {
                    "name": "juegosonce.com", 
                    "size": 1.7109757174938469
                }, 
                {
                    "name": "minijuegos.com", 
                    "size": 1.6969401254953549
                }, 
                {
                    "name": "angrybirdsgame.com", 
                    "size": 1.6295113624830808
                }, 
                {
                    "name": "101in1.com", 
                    "size": 1.7695247832092833
                }, 
                {
                    "name": "teamlava.com", 
                    "size": 2.0495606501921548
                }, 
                {
                    "name": "mtoy.biz", 
                    "size": 1.6817748651989708
                }, 
                {
                    "name": "gameloft.com", 
                    "size": 2.1553893153121821
                }, 
                {
                    "name": "zynga.com", 
                    "size": 2.2356382810595772
                }, 
                {
                    "name": "game-insight.com", 
                    "size": 1.6601208820380602
                }, 
                {
                    "name": "aceviral.com", 
                    "size": 1.5880348069649881
                }, 
                {
                    "name": "comunio.net", 
                    "size": 1.7411011265922482
                }, 
                {
                    "name": "3djuegos.com", 
                    "size": 1.5986104580964025
                }, 
                {
                    "name": "capcomcanada.com", 
                    "size": 1.8914277723080228
                }, 
                {
                    "name": "magicsolver.com", 
                    "size": 1.6043822345089294
                }, 
                {
                    "name": "heyzap.com", 
                    "size": 1.9555788443122308
                }, 
                {
                    "name": "eamobile.com", 
                    "size": 2.0406119842890864
                }, 
                {
                    "name": "comunio.es", 
                    "size": 2.0254457377450539
                }, 
                {
                    "name": "gameforge.com", 
                    "size": 1.6153942662021781
                }, 
                {
                    "name": "animoca.com", 
                    "size": 1.5956527233198223
                }, 
                {
                    "name": "genina.com", 
                    "size": 1.7133482659207111
                }, 
                {
                    "name": "king.com", 
                    "size": 1.9647083105999439
                }, 
                {
                    "name": "omgpop.com", 
                    "size": 2.1826668667873217
                }, 
                {
                    "name": "wildgames.com", 
                    "size": 1.6219484779914277
                }, 
                {
                    "name": "pocketgems.com", 
                    "size": 1.7020135636890192
                }, 
                {
                    "name": "cpmstar.com", 
                    "size": 1.5911214624647507
                }, 
                {
                    "name": "grepolis.com", 
                    "size": 1.6331774577175011
                }, 
                {
                    "name": "rovio.com", 
                    "size": 2.2191918537722737
                }
            ]
        }, 
        {
            "name": "Auctions", 
            "children": [
                {
                    "name": "ebay.com", 
                    "size": 1.668290386219033
                }, 
                {
                    "name": "todocoleccion.net", 
                    "size": 1.5911214624647507
                }, 
                {
                    "name": "ebay.es", 
                    "size": 1.8255098565146033
                }
            ]
        }, 
        {
            "name": "Career Services and Development", 
            "children": [
                {
                    "name": "infoempleo.com", 
                    "size": 1.7180064968413549
                }, 
                {
                    "name": "infojobs.net", 
                    "size": 1.7706970463348062
                }, 
                {
                    "name": "jobrapido.com", 
                    "size": 1.6219484779914277
                }, 
                {
                    "name": "trabajos.com", 
                    "size": 1.7093774101225592
                }, 
                {
                    "name": "trabajar.com", 
                    "size": 1.6780207489546366
                }, 
                {
                    "name": "cursosmarcablanca.com", 
                    "size": 1.7989655026692446
                }, 
                {
                    "name": "indeed.es", 
                    "size": 1.6899558548715783
                }
            ]
        }, 
        {
            "name": "Retail", 
            "children": [
                {
                    "name": "amazon.es", 
                    "size": 1.8608995646190873
                }, 
                {
                    "name": "venca.es", 
                    "size": 1.7164663642617923
                }, 
                {
                    "name": "spartoo.es", 
                    "size": 1.7291783529409241
                }, 
                {
                    "name": "primeriti.es", 
                    "size": 1.7424566032984408
                }, 
                {
                    "name": "systweak.com", 
                    "size": 1.680843389639489
                }, 
                {
                    "name": "ikea.com", 
                    "size": 1.7362806877260895
                }, 
                {
                    "name": "elcorteingles.es", 
                    "size": 1.8631295485586976
                }, 
                {
                    "name": "barilliance.net", 
                    "size": 1.7028460493442568
                }, 
                {
                    "name": "babcdn.com", 
                    "size": 1.6099729755450909
                }, 
                {
                    "name": "carrefour.es", 
                    "size": 1.6872683523924334
                }, 
                {
                    "name": "avira.com", 
                    "size": 1.6611620399354272
                }, 
                {
                    "name": "tiendeo.com", 
                    "size": 1.5911214624647507
                }, 
                {
                    "name": "samsung.com", 
                    "size": 1.5816945113203256
                }, 
                {
                    "name": "privalia.com", 
                    "size": 1.8140895870620402
                }, 
                {
                    "name": "buyvip.com", 
                    "size": 1.8112498381091928
                }, 
                {
                    "name": "ofertix.com", 
                    "size": 1.8578883351752016
                }, 
                {
                    "name": "nike.com", 
                    "size": 1.7195343027113503
                }, 
                {
                    "name": "ciao.es", 
                    "size": 1.6934803938384888
                }, 
                {
                    "name": "sanasecurity.com", 
                    "size": 1.7510434757409536
                }, 
                {
                    "name": "trendmicro.com", 
                    "size": 1.692605434332267
                }, 
                {
                    "name": "blanco.com", 
                    "size": 1.6872683523924334
                }, 
                {
                    "name": "amazon.com", 
                    "size": 1.6960811309553872
                }, 
                {
                    "name": "apple.com", 
                    "size": 2.9989415716950312
                }, 
                {
                    "name": "codigobarras.com", 
                    "size": 2.0025246726793013
                }, 
                {
                    "name": "zara.com", 
                    "size": 1.6934803938384888
                }, 
                {
                    "name": "decathlon.es", 
                    "size": 1.6085916089575294
                }, 
                {
                    "name": "entradas.com", 
                    "size": 1.5848931924611136
                }, 
                {
                    "name": "alibaba.com", 
                    "size": 1.6057964191840091
                }, 
                {
                    "name": "shopall.es", 
                    "size": 1.7724424492260813
                }, 
                {
                    "name": "coolmobile.es", 
                    "size": 1.7471274508261943
                }, 
                {
                    "name": "latiendademarca.com", 
                    "size": 2.0709363029736401
                }, 
                {
                    "name": "hp.com", 
                    "size": 1.5767845668359715
                }, 
                {
                    "name": "casadellibro.com", 
                    "size": 1.5880348069649881
                }, 
                {
                    "name": "fnac.es", 
                    "size": 1.6071994829923508
                }, 
                {
                    "name": "avg.com", 
                    "size": 2.4493321939922867
                }, 
                {
                    "name": "pandasoftware.com", 
                    "size": 1.8828633531965318
                }
            ]
        }, 
        {
            "name": "Portals", 
            "children": [
                {
                    "name": "msn.com", 
                    "size": 2.3405132902519186
                }, 
                {
                    "name": "yahoo.com", 
                    "size": 2.3337844558377623
                }, 
                {
                    "name": "hispavista.com", 
                    "size": 1.7580244501366162
                }, 
                {
                    "name": "terra.es", 
                    "size": 1.9140549143497942
                }, 
                {
                    "name": "sina.com.cn", 
                    "size": 1.7255263105898209
                }, 
                {
                    "name": "live.com", 
                    "size": 2.3982401745014328
                }, 
                {
                    "name": "live.net", 
                    "size": 2.0011687965131699
                }, 
                {
                    "name": "naver.com", 
                    "size": 1.9808349715438462
                }, 
                {
                    "name": "microsoft.com", 
                    "size": 2.2087069029383244
                }, 
                {
                    "name": "qq.com", 
                    "size": 1.8392483394785382
                }, 
                {
                    "name": "aol.com", 
                    "size": 1.641454445396834
                }, 
                {
                    "name": "sogou.com", 
                    "size": 1.8320653456283766
                }, 
                {
                    "name": "univision.com", 
                    "size": 1.6127041225612779
                }, 
                {
                    "name": "gsmspain.com", 
                    "size": 1.6232311643048889
                }, 
                {
                    "name": "paran.com", 
                    "size": 1.7490953266212945
                }, 
                {
                    "name": "yahoo.net", 
                    "size": 1.6672887078344625
                }
            ]
        }, 
        {
            "name": "Directories/Resources", 
            "children": [
                {
                    "name": "wikipedia.org", 
                    "size": 2.2775136793161028
                }, 
                {
                    "name": "correos.es", 
                    "size": 1.6085916089575294
                }, 
                {
                    "name": "planeo.com", 
                    "size": 2.128534005371761
                }, 
                {
                    "name": "thefreedictionary.com", 
                    "size": 1.6391277527348698
                }, 
                {
                    "name": "paginasamarillas.es", 
                    "size": 1.8721712305548575
                }, 
                {
                    "name": "segundamano.es", 
                    "size": 1.9605422058953326
                }, 
                {
                    "name": "dixio.com", 
                    "size": 1.802978975709745
                }, 
                {
                    "name": "wordreference.com", 
                    "size": 1.9952623149688797
                }, 
                {
                    "name": "guias11811.es", 
                    "size": 1.5784365299976539
                }, 
                {
                    "name": "olx.com", 
                    "size": 1.736976732219687
                }, 
                {
                    "name": "olx.es", 
                    "size": 1.5864709984787195
                }, 
                {
                    "name": "salir.com", 
                    "size": 1.6908432057236322
                }, 
                {
                    "name": "ecartelera.com", 
                    "size": 1.6712633604788296
                }, 
                {
                    "name": "milanuncios.com", 
                    "size": 2.1458385075964936
                }, 
                {
                    "name": "callejero.net", 
                    "size": 1.5864709984787195
                }, 
                {
                    "name": "todoexpertos.com", 
                    "size": 1.5971377527475774
                }, 
                {
                    "name": "teletexto.com", 
                    "size": 1.5864709984787195
                }, 
                {
                    "name": "mundoanuncio.com", 
                    "size": 1.7164663642617923
                }, 
                {
                    "name": "11870.com", 
                    "size": 1.5911214624647507
                }, 
                {
                    "name": "guiarepsol.com", 
                    "size": 1.5971377527475774
                }, 
                {
                    "name": "rincondelvago.com", 
                    "size": 1.6085916089575294
                }, 
                {
                    "name": "muyinteresante.es", 
                    "size": 1.6099729755450909
                }
            ]
        }, 
        {
            "name": "Real Estate", 
            "children": [
                {
                    "name": "enalquiler.com", 
                    "size": 1.7020135636890192
                }, 
                {
                    "name": "idealista.com", 
                    "size": 1.9371234277485265
                }, 
                {
                    "name": "fotocasa.es", 
                    "size": 1.7598857955046396
                }, 
                {
                    "name": "yaencontre.com", 
                    "size": 1.5751168787068055
                }, 
                {
                    "name": "habitaclia.com", 
                    "size": 1.6153942662021781
                }
            ]
        }, 
        {
            "name": "Education", 
            "children": [
                {
                    "name": "rae.es", 
                    "size": 1.8413137717795061
                }, 
                {
                    "name": "ub.edu", 
                    "size": 1.60295674122756
                }, 
                {
                    "name": "gva.es", 
                    "size": 1.5971377527475774
                }, 
                {
                    "name": "emagister.com", 
                    "size": 1.6113437568139082
                }, 
                {
                    "name": "xtec.cat", 
                    "size": 1.5880348069649881
                }
            ]
        }, 
        {
            "name": "Technology", 
            "children": [
                {
                    "name": "anscamobile.com", 
                    "size": 1.6391277527348698
                }, 
                {
                    "name": "whatsapp.com", 
                    "size": 1.9350303514698974
                }, 
                {
                    "name": "outfit7.com", 
                    "size": 1.8024816704808087
                }, 
                {
                    "name": "avast.com", 
                    "size": 1.9831655168538913
                }, 
                {
                    "name": "ad-x.co.uk", 
                    "size": 1.689064290779593
                }, 
                {
                    "name": "infojobs.com", 
                    "size": 1.683624003879018
                }, 
                {
                    "name": "infolife.mobi", 
                    "size": 1.7567736270879843
                }, 
                {
                    "name": "htcmania.com", 
                    "size": 1.5941551500450146
                }, 
                {
                    "name": "symantec.com", 
                    "size": 1.5784365299976539
                }, 
                {
                    "name": "apps4led.com", 
                    "size": 1.8228272078682801
                }, 
                {
                    "name": "getsocialize.com", 
                    "size": 1.8646029682169476
                }, 
                {
                    "name": "ntius.com", 
                    "size": 1.7299004998778658
                }, 
                {
                    "name": "siteadvisor.com", 
                    "size": 1.5986104580964025
                }, 
                {
                    "name": "appsgeyser.com", 
                    "size": 1.8984115082442703
                }, 
                {
                    "name": "taptapnetworks.com", 
                    "size": 2.1230063561645278
                }, 
                {
                    "name": "airpush.com", 
                    "size": 2.7235003638912931
                }, 
                {
                    "name": "netzpurist.de", 
                    "size": 1.72626230073693
                }, 
                {
                    "name": "tango.me", 
                    "size": 1.683624003879018
                }, 
                {
                    "name": "softonic.com", 
                    "size": 1.8521210213743686
                }, 
                {
                    "name": "mozilla.org", 
                    "size": 1.6872683523924334
                }, 
                {
                    "name": "applesfera.com", 
                    "size": 1.7028460493442568
                }, 
                {
                    "name": "elotrolado.net", 
                    "size": 1.580073077972056
                }, 
                {
                    "name": "eset.com", 
                    "size": 1.8461874022653986
                }, 
                {
                    "name": "xataka.com", 
                    "size": 1.5848931924611136
                }, 
                {
                    "name": "asus.com", 
                    "size": 1.5864709984787195
                }, 
                {
                    "name": "pandasecurity.com", 
                    "size": 1.8178147464665273
                }, 
                {
                    "name": "mobilityware.com", 
                    "size": 2.1041196460238796
                }, 
                {
                    "name": "kiloo.com", 
                    "size": 1.8914277723080228
                }, 
                {
                    "name": "adobe.com", 
                    "size": 1.7677531769118104
                }, 
                {
                    "name": "appsfire.net", 
                    "size": 1.6943513036291473
                }, 
                {
                    "name": "mocean.mobi", 
                    "size": 2.0869252786829673
                }, 
                {
                    "name": "xsellize.com", 
                    "size": 1.7764559123916857
                }, 
                {
                    "name": "mcafee.com", 
                    "size": 1.6245047927124712
                }
            ]
        }, 
        {
            "name": "Telecommunications", 
            "children": [
                {
                    "name": "htc.com", 
                    "size": 1.7561451972965247
                }, 
                {
                    "name": "mobaloo.com", 
                    "size": 2.2095049912063049
                }, 
                {
                    "name": "viber.com", 
                    "size": 2.2445096147268173
                }, 
                {
                    "name": "ipx.com", 
                    "size": 1.8858677190929773
                }, 
                {
                    "name": "movistar.es", 
                    "size": 2.0717910622277866
                }, 
                {
                    "name": "orange.es", 
                    "size": 1.8049559459398217
                }, 
                {
                    "name": "sonyericsson.com", 
                    "size": 1.6460206737514929
                }, 
                {
                    "name": "vodafone.es", 
                    "size": 1.822376626203009
                }, 
                {
                    "name": "ovi.com", 
                    "size": 1.6167243636066806
                }
            ]
        }
    ]
}